0.,1.,0.,0.
0.11619E02,0.23742E1,-0.27041E-1,0.17556E-3
0.11551E02,0.35702E1,-0.57338E-1,0.44222E-3
0.76118E01,0.33730E1,-0.49315E-1,0.35556E-3
0.23004E02,0.44391E1,-0.10234E00,0.11078E-2
0.18316E02,0.42793E1,-0.90847E-1,0.92163E-3
0.36266E02,0.42412E1,-0.10975E00,0.12960E-2
0.41914E01,0.13650E1,-0.54333E-2,0.13333E-4
0.19996E02,0.46847E1,-0.10891E00,0.11819E-2
0.58223E00,0.25197E1,-0.27255E-1,0.19111E-3
0.36738E02,0.32868E1,-0.66468E-1,0.62000E-3
0.,0.,0.,0.
0.,0.,0.,0.
0.1,0.,0.,0.
0.36166E02,0.42412E1,-0.10975E00,0.12960E-2
0.,0.,0.,0.
0.,1.1,0.,0.
0.,0.9,0.,0.
0.,1.1,0.,0.
0.,0.9,0.,0.
0.,1.1,0.,0.
0.,0.9,0.,0.
0.,1.1,0.,0.
0.,0.9,0.,0.
